AE 2023 - Datos Espaciales en R
…
Diseñado para almacenar datos complejos y voluminosos (hasta 140 TB)

Permite almacenar diferentes tipos de geometrías en un mismo archivo

Destaca por su flexibilidad pudiendolo utilizar de muchas maneras, por lo que puede reemplazar al formato shapefile

Vectoriales

print(departamentos <- read_sf("datos/deptos_cba", stringsAsFactors = TRUE), n = 3)
## Simple feature collection with 26 features and 5 fields
## Geometry type: POLYGON
## Dimension:     XY
## Bounding box:  xmin: -65.77198 ymin: -35.00013 xmax: -61.77089 ymax: -29.50042
## Geodetic CRS:  WGS 84
## # A tibble: 26 × 6
##   objectid departa            cabecer provincia fuente                  geometry
##      <dbl> <fct>              <fct>   <fct>     <fct>              <POLYGON [°]>
## 1      393 PRESIDENTE ROQUE … LABOUL… CORDOBA   CATAS… ((-62.8198 -33.89651, -6…
## 2      341 TERCERO ARRIBA     OLIVA   CORDOBA   CATAS… ((-63.11768 -32.00111, -…
## 3      342 JUAREZ CELMAN      LA CAR… CORDOBA   CATAS… ((-63.55538 -32.83089, -…
## # ℹ 23 more rows

Vectoriales

print(departamentos <- read_sf("datos/deptos_cba", stringsAsFactors = TRUE), n = 3)
## Simple feature collection with 26 features and 5 fields
## Geometry type: POLYGON
## Dimension:     XY
## Bounding box:  xmin: -65.77198 ymin: -35.00013 xmax: -61.77089 ymax: -29.50042
## Geodetic CRS:  WGS 84
## # A tibble: 26 × 6
##   objectid departa            cabecer provincia fuente                  geometry
##      <dbl> <fct>              <fct>   <fct>     <fct>              <POLYGON [°]>
## 1      393 PRESIDENTE ROQUE … LABOUL… CORDOBA   CATAS… ((-62.8198 -33.89651, -6…
## 2      341 TERCERO ARRIBA     OLIVA   CORDOBA   CATAS… ((-63.11768 -32.00111, -…
## 3      342 JUAREZ CELMAN      LA CAR… CORDOBA   CATAS… ((-63.55538 -32.83089, -…
## # ℹ 23 more rows
…
Ahora visualicemos cuencas

print(cuencas <- read_sf("datos/cuencas_cba/cuencas_cba.gpkg", stringsAsFactors = TRUE), n = 2)
## Simple feature collection with 32 features and 6 fields
## Geometry type: POLYGON
## Dimension:     XY
## Bounding box:  xmin: 3520724 ymin: 6124258 xmax: 3898029 ymax: 6736392
## Projected CRS: unnamed
## # A tibble: 32 × 7
##         AREA PERIMETER COR3_ COR3_ID CUENCA    SISTEMA                      geom
##        <dbl>     <dbl> <dbl>   <dbl> <fct>     <fct>               <POLYGON [m]>
## 1 2939859000   337780.     2      28 SISTEMA … SISTEM… ((3622555 6732250, 36239…
## 2  382742500    95968.     3      30 CUENCA D… SISTEM… ((3633386 6733595, 36335…
## # ℹ 30 more rows
…
st_crs(departamentos) == st_crs(cuencas)
## [1] TRUE

print(cuencas, n = 4)
## Simple feature collection with 32 features and 6 fields
## Geometry type: POLYGON
## Dimension:     XY
## Bounding box:  xmin: -65.78294 ymin: -35.00037 xmax: -61.77663 ymax: -29.49721
## Geodetic CRS:  WGS 84
## # A tibble: 32 × 7
##         AREA PERIMETER COR3_ COR3_ID CUENCA    SISTEMA                      geom
## *      <dbl>     <dbl> <dbl>   <dbl> <fct>     <fct>               <POLYGON [°]>
## 1 2939859000   337780.     2      28 SISTEMA … SISTEM… ((-64.73567 -29.53934, -…
## 2  382742500    95968.     3      30 CUENCA D… SISTEM… ((-64.62412 -29.5261, -6…
## 3 2702037000   454788.     4      27 CUENCA D… SISTEM… ((-64.83056 -29.55093, -…
## 4 2717994000   391502.     5      31 CUENCA D… SISTEM… ((-64.83056 -29.55093, -…
## # ℹ 28 more rows
…
